# Exported from ProBuilder
# http://www.procore3d.com/probuilder
# 3/20/2019 9:45:39 AM

mtllib ./ProtoRacer.mtl
o ProtoRacer

g Prism
v 0.004797727 0.5000002 0.6283271
v -0.2105573 0.5000002 0.1673028
v 0.2105573 0.5000002 0.1673028
v 0 0.3000001 0.9884174
v -0.5 1.801947E-07 -0.0115827
v -0.5 0.3000002 -0.01158267
v 0 6.098543E-08 0.9884174
v 0 6.098543E-08 0.9884174
v 0.5 1.801947E-07 -0.0115827
v -0.5 1.801947E-07 -0.0115827
v 0 6.098543E-08 0.9884174
v 0.5 0.3000002 -0.01158267
v 0.5 1.801947E-07 -0.0115827
v 0 0.3000001 0.9884174
v 0.5 0.3000003 -0.9884174
v -0.5 0.3000003 -0.9884174
v 0.5 -1.380787E-09 -0.9884174
v -0.5 -1.380787E-09 -0.9884174
v 0.3 0.5000002 -0.2115827
v -0.3 0.5000002 -0.2115827
v 0.3 0.5000003 -0.8419774
v -0.3 0.5000003 -0.8419774
v 0.5 1.801947E-07 -0.0115827
v 0.5 0.3000002 -0.01158267
v 0.5 -1.380787E-09 -0.9884174
v 0.5 0.3000003 -0.9884174
v -0.5 0.3000002 -0.01158267
v -0.5 1.801947E-07 -0.0115827
v -0.5 0.3000003 -0.9884174
v -0.5 -1.380787E-09 -0.9884174
v -0.5 -1.380787E-09 -0.9884174
v 0.5 -1.380787E-09 -0.9884174
v -0.3 0.5000002 -0.2115827
v 0.2105573 0.5000002 0.1673028
v -0.2105573 0.5000002 0.1673028
v 0.3 0.5000002 -0.2115827
v 0.5 0.3000003 -0.9884174
v 0.3 0.5000002 -0.2115827
v 0.3 0.5000003 -0.8419774
v 0.5 0.3000002 -0.01158267
v -0.5 0.3000002 -0.01158267
v -0.3 0.5000003 -0.8419774
v -0.3 0.5000002 -0.2115827
v -0.5 0.3000003 -0.9884174
v 0.3 0.5000003 -0.8419774
v -0.5 0.3000003 -0.9884174
v 0.5 0.3000003 -0.9884174
v -0.3 0.5000003 -0.8419774
v 0 0.3000001 0.9884174
v -0.2105573 0.5000002 0.1673028
v 0.004797727 0.5000002 0.6283271
v -0.5 0.3000002 -0.01158267
v 0.5 0.3000002 -0.01158267
v 0.004797727 0.5000002 0.6283271
v 0.2105573 0.5000002 0.1673028
v 0 0.3000001 0.9884174
v -0.5 0.3000002 -0.01158267
v -0.3 0.5000002 -0.2115827
v -0.2105573 0.5000002 0.1673028
v 0.2105573 0.5000002 0.1673028
v 0.3 0.5000002 -0.2115827
v 0.5 0.3000002 -0.01158267

vn 0 1 1.192093E-07
vn 0 1 1.192093E-07
vn 0 1 1.192093E-07
vn -0.8944272 -5.331201E-08 0.4472136
vn -0.8944272 -5.331201E-08 0.4472136
vn -0.8944272 -5.331201E-08 0.4472136
vn -0.8944272 -5.331201E-08 0.4472136
vn 0 -1 -1.192093E-07
vn 0 -1 -1.192093E-07
vn 0 -1 -1.192093E-07
vn 0.8944272 -5.331201E-08 0.4472136
vn 0.8944272 -5.331201E-08 0.4472136
vn 0.8944272 -5.331201E-08 0.4472136
vn 0.8944272 -5.331201E-08 0.4472136
vn 0 -7.947275E-08 -1
vn 0 -7.947275E-08 -1
vn 0 -7.947275E-08 -1
vn 0 -7.947275E-08 -1
vn 0 1 1.192093E-07
vn 0 1 1.192093E-07
vn 0 1 1.192093E-07
vn 0 1 1.192093E-07
vn 1 0 0
vn 1 0 0
vn 1 0 0
vn 1 0 0
vn -1 0 0
vn -1 0 0
vn -1 0 0
vn -1 0 0
vn 0 -1 1.858815E-07
vn 0 -1 1.858815E-07
vn 0 1 4.055141E-08
vn 0 1 4.055141E-08
vn 0 1 4.055141E-08
vn 0 1 4.055141E-08
vn 0.7071069 0.7071068 5.193393E-08
vn 0.7071069 0.7071068 5.193393E-08
vn 0.7071069 0.7071068 8.429369E-08
vn 0.7071068 0.7071069 1.957417E-08
vn -0.7071068 0.7071068 5.193393E-08
vn -0.7071068 0.7071068 5.193393E-08
vn -0.7071068 0.7071069 8.42937E-08
vn -0.7071069 0.7071068 1.957417E-08
vn 0 0.5907689 -0.806841
vn 0 0.5907689 -0.806841
vn 0 0.5907689 -0.806841
vn 0 0.5907688 -0.806841
vn -0.6898886 0.6417612 0.333222
vn -0.6898886 0.6417612 0.333222
vn -0.7131105 0.6168558 0.3331105
vn -0.6666667 0.6666667 0.3333335
vn 0.6818577 0.6541353 0.3232183
vn 0.6818577 0.6541353 0.3232183
vn 0.659733 0.6914148 0.2944453
vn 0.7039824 0.6168557 0.3519913
vn -0.6221399 0.7690073 0.1468674
vn -0.6221399 0.7690073 0.1468674
vn -0.6221399 0.7690073 0.1468674
vn 0.6221399 0.7690073 0.1468674
vn 0.6221399 0.7690073 0.1468674
vn 0.6221399 0.7690073 0.1468674

vt 0.4952023 0.6399096
vt 0.7105573 0.1788854
vt 0.2894427 0.1788854
vt 0.2 0.6708204
vt 0.5 -0.4472136
vt 0.2 -0.4472136
vt 0.5 0.6708204
vt 0 0.9884173
vt 0.5 -0.01158267
vt -0.5 -0.01158267
vt -0.5 1.118034
vt -0.2 0
vt -0.5 0
vt -0.2 1.118034
vt 0 0.2000001
vt -1 0.2000001
vt 0 0.5000002
vt -1 0.5000002
vt 0.2 -0.2
vt 0.8 -0.2
vt 0.2 -1.300002
vt 0.8 -1.300002
vt -0.5 0
vt -0.2 0
vt -0.5000002 -1.500002
vt -0.2000001 -1.500002
vt 0.2 0
vt 0.5 0
vt 0.2000001 -1.500002
vt 0.5000002 -1.500002
vt -0.5 -0.9884173
vt 0.5 -0.9884173
vt 0.3 -0.2115827
vt -0.2105573 0.1673028
vt 0.2105573 0.1673028
vt -0.3 -0.2115827
vt -0.318198 -0.9884173
vt -0.0353552 -0.2115827
vt -0.0353552 -0.8419774
vt -0.3181979 -0.01158267
vt 0.318198 -0.01158267
vt 0.03535528 -0.8419774
vt 0.03535528 -0.2115827
vt 0.318198 -0.9884173
vt 0.3 0.2957035
vt -0.5 0.5435839
vt 0.5 0.5435839
vt -0.3 0.2957035
vt -0.03781534 0.9210703
vt -0.05132557 0.05021958
vt -0.192215 0.5391687
vt 0.2892945 -0.147784
vt -0.3272272 -0.1233538
vt 0.1691132 0.54624
vt 0.02024858 0.06382982
vt 0.03451694 0.9339478
vt 0.3572707 -0.06335292
vt 0.07599117 -0.2655455
vt 0.006455014 0.1174936
vt -0.006455014 0.1174936
vt -0.07599117 -0.2655455
vt -0.3572707 -0.06335292

g Prism
usemtl ProBuilderDefault
f 3/3/3 2/2/2 1/1/1
f 6/6/6 5/5/5 4/4/4
f 5/5/5 7/7/7 4/4/4
f 10/10/10 9/9/9 8/8/8
f 13/13/13 12/12/12 11/11/11
f 12/12/12 14/14/14 11/11/11
f 17/17/17 16/16/16 15/15/15
f 17/17/17 18/18/18 16/16/16
f 21/21/21 20/20/20 19/19/19
f 21/21/21 22/22/22 20/20/20
f 25/25/25 24/24/24 23/23/23
f 25/25/25 26/26/26 24/24/24
f 29/29/29 28/28/28 27/27/27
f 29/29/29 30/30/30 28/28/28
f 31/31/31 9/9/9 10/10/10
f 31/31/31 32/32/32 9/9/9
f 35/35/35 34/34/34 33/33/33
f 34/34/34 36/36/36 33/33/33
f 39/39/39 38/38/38 37/37/37
f 38/38/38 40/40/40 37/37/37
f 43/43/43 42/42/42 41/41/41
f 42/42/42 44/44/44 41/41/41
f 47/47/47 46/46/46 45/45/45
f 46/46/46 48/48/48 45/45/45
f 51/51/51 50/50/50 49/49/49
f 50/50/50 52/52/52 49/49/49
f 55/55/55 54/54/54 53/53/53
f 54/54/54 56/56/56 53/53/53
f 59/59/59 58/58/58 57/57/57
f 62/62/62 61/61/61 60/60/60

