%YAML 1.1
%TAG !u! tag:unity3d.com,2011:
--- !u!1045 &1
EditorBuildSettings:
  m_ObjectHideFlags: 0
  serializedVersion: 2
  m_Scenes:
  - enabled: 1
    path: Assets/Scenes/TitleScene.unity
    guid: 30c0fc6d6a138564aae115a575f505b0
  - enabled: 1
    path: Assets/Scenes/TestTrack.unity
    guid: aa3aa4aeceb58f64a985baef8a8d5add
  m_configObjects: {}
